…
``` r
# Checking typos in school id
data %>%
  # Grouping by school id
  group_by(SCHOOLID, .drop = FALSE) %>%
  # Summarizing counts and adding school names
  summarize(Name = SchoolNm, count = n()) %>%
  # Finding any counts less than five
  filter(count < 5)
```

    ## # A tibble: 82 × 3
    ## # Groups:   SCHOOLID [207]
    ##    SCHOOLID Name                                     count
    ##       <dbl> <chr>                                    <int>
    ##  1  1001121 "Lucy Garrett Beckham High"                  2
    ##  2  1001121 "Lucy Garrett Beckham High"                  2
    ##  3  1401001 "Scott's Branch High School"                 4
    ##  4  1401001 "Scott's Branch High School"                 4
    ##  5  1401001 "Scott's Branch Middle High School"          4
    ##  6  1401001 "Scott's Branch High"                        4
    ##  7  1403016 "East Clarendon Middle / High School"        4
    ##  8  1403016 "East Clarendon Middle / High School"        4
    ##  9  1403016 "East Clarendon Middle / High\r\nSchool"     4
    ## 10  1403016 "East Clarendon Middle / High\r\nSchool"     4
    ## # ℹ 72 more rows
…
# Checking typos again - looks good
data %>%
  # Grouping by school id
  group_by(SCHOOLID, .drop = FALSE) %>%
  # Summarizing counts and adding school names
  summarize(Name = SchoolNm, count = n()) %>%
  # Finding any counts less than five
  filter(count < 5)
```

    ## # A tibble: 32 × 3
    ## # Groups:   SCHOOLID [197]
    ##    SCHOOLID Name                      count
    ##       <dbl> <chr>                     <int>
    ##  1  1001121 Lucy Garrett Beckham High     2
    ##  2  1001121 Lucy Garrett Beckham High     2
    ##  3  2103029 Lake City High School         4
    ##  4  2103029 Lake City High School         4
    ##  5  2103029 Lake City High School         4
    ##  6  2103029 Lake City High School         4
    ##  7  2301005 Carolina High School          3
    ##  8  2301005 Carolina High School          3
    ##  9  2301005 Carolina High School          3
    ## 10  2301122 Fountain Inn High School      1
    ## # ℹ 22 more rows
…
